%YAML 1.1
%TAG !u! tag:unity3d.com,2011:
--- !u!1001 &7259684508145945608
PrefabInstance:
  m_ObjectHideFlags: 0
  serializedVersion: 2
  m_Modification:
    m_TransformParent: {fileID: 0}
    m_Modifications:
    - target: {fileID: 338250547470231521, guid: 074e9805de4448348998c1ba5b80ffb1,
        type: 3}
      propertyPath: m_RootOrder
      value: 0
      objectReference: {fileID: 0}
    - target: {fileID: 338250547470231521, guid: 074e9805de4448348998c1ba5b80ffb1,
        type: 3}
      propertyPath: m_LocalPosition.x
      value: 0
      objectReference: {fileID: 0}
    - target: {fileID: 338250547470231521, guid: 074e9805de4448348998c1ba5b80ffb1,
        type: 3}
      propertyPath: m_LocalPosition.y
      value: 0
      objectReference: {fileID: 0}
    - target: {fileID: 338250547470231521, guid: 074e9805de4448348998c1ba5b80ffb1,
        type: 3}
      propertyPath: m_LocalPosition.z
      value: 0
      objectReference: {fileID: 0}
    - target: {fileID: 338250547470231521, guid: 074e9805de4448348998c1ba5b80ffb1,
        type: 3}
      propertyPath: m_LocalRotation.w
      value: 1
      objectReference: {fileID: 0}
    - target: {fileID: 338250547470231521, guid: 074e9805de4448348998c1ba5b80ffb1,
        type: 3}
      propertyPath: m_LocalRotation.x
      value: 0
      objectReference: {fileID: 0}
    - target: {fileID: 338250547470231521, guid: 074e9805de4448348998c1ba5b80ffb1,
        type: 3}
      propertyPath: m_LocalRotation.y
      value: 0
      objectReference: {fileID: 0}
    - target: {fileID: 338250547470231521, guid: 074e9805de4448348998c1ba5b80ffb1,
        type: 3}
      propertyPath: m_LocalRotation.z
      value: 0
      objectReference: {fileID: 0}
    - target: {fileID: 338250547470231521, guid: 074e9805de4448348998c1ba5b80ffb1,
        type: 3}
      propertyPath: m_LocalEulerAnglesHint.x
      value: 0
      objectReference: {fileID: 0}
    - target: {fileID: 338250547470231521, guid: 074e9805de4448348998c1ba5b80ffb1,
        type: 3}
      propertyPath: m_LocalEulerAnglesHint.y
      value: 0
      objectReference: {fileID: 0}
    - target: {fileID: 338250547470231521, guid: 074e9805de4448348998c1ba5b80ffb1,
        type: 3}
      propertyPath: m_LocalEulerAnglesHint.z
      value: 0
      objectReference: {fileID: 0}
    - target: {fileID: 338250547470231522, guid: 074e9805de4448348998c1ba5b80ffb1,
        type: 3}
      propertyPath: uiGamePrefab
      value: 
      objectReference: {fileID: 1724893831850307288, guid: bd81838ec2be1fb4c8feff93379a35cd,
        type: 3}
    - target: {fileID: 338250547470231522, guid: 074e9805de4448348998c1ba5b80ffb1,
        type: 3}
      propertyPath: gameEnginePrefab
      value: 
      objectReference: {fileID: 4386761315323652085, guid: bf2d9b6a943920a45bab82b1dff7d603,
        type: 3}
    - target: {fileID: 338250547470231523, guid: 074e9805de4448348998c1ba5b80ffb1,
        type: 3}
      propertyPath: m_Name
      value: GameManager_AllCards
      objectReference: {fileID: 0}
    m_RemovedComponents: []
  m_SourcePrefab: {fileID: 100100000, guid: 074e9805de4448348998c1ba5b80ffb1, type: 3}
