%YAML 1.1
%TAG !u! tag:unity3d.com,2011:
--- !u!1001 &9187409570101082182
PrefabInstance:
  m_ObjectHideFlags: 0
  serializedVersion: 2
  m_Modification:
    m_TransformParent: {fileID: 0}
    m_Modifications:
    - target: {fileID: 5860358219754514386, guid: 4d2f945763d8dcc4b87eea12b9213213,
        type: 3}
      propertyPath: m_Sprite
      value: 
      objectReference: {fileID: 21300000, guid: 3c9805506cdde8f44889fc034ab0097e,
        type: 3}
    - target: {fileID: 7102443514186047712, guid: 4d2f945763d8dcc4b87eea12b9213213,
        type: 3}
      propertyPath: m_Name
      value: UI_PowerToken
      objectReference: {fileID: 0}
    - target: {fileID: 7267086120403945025, guid: 4d2f945763d8dcc4b87eea12b9213213,
        type: 3}
      propertyPath: m_Pivot.x
      value: 0.5
      objectReference: {fileID: 0}
    - target: {fileID: 7267086120403945025, guid: 4d2f945763d8dcc4b87eea12b9213213,
        type: 3}
      propertyPath: m_Pivot.y
      value: 0.5
      objectReference: {fileID: 0}
    - target: {fileID: 7267086120403945025, guid: 4d2f945763d8dcc4b87eea12b9213213,
        type: 3}
      propertyPath: m_RootOrder
      value: 0
      objectReference: {fileID: 0}
    - target: {fileID: 7267086120403945025, guid: 4d2f945763d8dcc4b87eea12b9213213,
        type: 3}
      propertyPath: m_AnchorMax.x
      value: 0
      objectReference: {fileID: 0}
    - target: {fileID: 7267086120403945025, guid: 4d2f945763d8dcc4b87eea12b9213213,
        type: 3}
      propertyPath: m_AnchorMax.y
      value: 0
      objectReference: {fileID: 0}
    - target: {fileID: 7267086120403945025, guid: 4d2f945763d8dcc4b87eea12b9213213,
        type: 3}
      propertyPath: m_AnchorMin.x
      value: 0
      objectReference: {fileID: 0}
    - target: {fileID: 7267086120403945025, guid: 4d2f945763d8dcc4b87eea12b9213213,
        type: 3}
      propertyPath: m_AnchorMin.y
      value: 0
      objectReference: {fileID: 0}
    - target: {fileID: 7267086120403945025, guid: 4d2f945763d8dcc4b87eea12b9213213,
        type: 3}
      propertyPath: m_SizeDelta.x
      value: 0
      objectReference: {fileID: 0}
    - target: {fileID: 7267086120403945025, guid: 4d2f945763d8dcc4b87eea12b9213213,
        type: 3}
      propertyPath: m_SizeDelta.y
      value: 0
      objectReference: {fileID: 0}
    - target: {fileID: 7267086120403945025, guid: 4d2f945763d8dcc4b87eea12b9213213,
        type: 3}
      propertyPath: m_LocalPosition.x
      value: 0
      objectReference: {fileID: 0}
    - target: {fileID: 7267086120403945025, guid: 4d2f945763d8dcc4b87eea12b9213213,
        type: 3}
      propertyPath: m_LocalPosition.y
      value: 0
      objectReference: {fileID: 0}
    - target: {fileID: 7267086120403945025, guid: 4d2f945763d8dcc4b87eea12b9213213,
        type: 3}
      propertyPath: m_LocalPosition.z
      value: 0
      objectReference: {fileID: 0}
    - target: {fileID: 7267086120403945025, guid: 4d2f945763d8dcc4b87eea12b9213213,
        type: 3}
      propertyPath: m_LocalRotation.w
      value: 1
      objectReference: {fileID: 0}
    - target: {fileID: 7267086120403945025, guid: 4d2f945763d8dcc4b87eea12b9213213,
        type: 3}
      propertyPath: m_LocalRotation.x
      value: 0
      objectReference: {fileID: 0}
    - target: {fileID: 7267086120403945025, guid: 4d2f945763d8dcc4b87eea12b9213213,
        type: 3}
      propertyPath: m_LocalRotation.y
      value: 0
      objectReference: {fileID: 0}
    - target: {fileID: 7267086120403945025, guid: 4d2f945763d8dcc4b87eea12b9213213,
        type: 3}
      propertyPath: m_LocalRotation.z
      value: 0
      objectReference: {fileID: 0}
    - target: {fileID: 7267086120403945025, guid: 4d2f945763d8dcc4b87eea12b9213213,
        type: 3}
      propertyPath: m_AnchoredPosition.x
      value: 0
      objectReference: {fileID: 0}
    - target: {fileID: 7267086120403945025, guid: 4d2f945763d8dcc4b87eea12b9213213,
        type: 3}
      propertyPath: m_AnchoredPosition.y
      value: 0
      objectReference: {fileID: 0}
    - target: {fileID: 7267086120403945025, guid: 4d2f945763d8dcc4b87eea12b9213213,
        type: 3}
      propertyPath: m_LocalEulerAnglesHint.x
      value: 0
      objectReference: {fileID: 0}
    - target: {fileID: 7267086120403945025, guid: 4d2f945763d8dcc4b87eea12b9213213,
        type: 3}
      propertyPath: m_LocalEulerAnglesHint.y
      value: 0
      objectReference: {fileID: 0}
    - target: {fileID: 7267086120403945025, guid: 4d2f945763d8dcc4b87eea12b9213213,
        type: 3}
      propertyPath: m_LocalEulerAnglesHint.z
      value: 0
      objectReference: {fileID: 0}
    m_RemovedComponents: []
  m_SourcePrefab: {fileID: 100100000, guid: 4d2f945763d8dcc4b87eea12b9213213, type: 3}
